{
  "content": [
    {
      "applicationSuccessType": "failure",
      "cardLimit": 800000,
      "cardType": "SIGNATURE",
      "correlationId": "CORR96543",
      "customerCibil": 701,
      "customerId": "CUST00001",
      "customerIncome": 1393216,
      "customerName": "Customer_1",
      "errorCodes": "ERR_LINK_NOT_OPENED",
      "failureStep": "Link Not Opened",
      "id": "6968d9860a04c052e2e44f1a",
      "jsonStructures": null,
      "linkOpenStatus": "Not Opened",
      "linkSubmitStatus": "Not Submitted",
      "sourceSystem": "FRONTEND",
      "transactionDate": "2026-01-08T15:42:46",
      "transactionId": "TXN128DCD03C5",
      "transactionStep": "Link Not Opened"
    },
    {
      "applicationSuccessType": "success",
      "cardLimit": 800000,
      "cardType": "SIGNATURE",
      "correlationId": "CORR96543",
      "customerCibil": 701,
      "customerId": "CUST00001",
      "customerIncome": 1393216,
      "customerName": "Customer_1",
      "errorCodes": "NONE",
      "failureStep": "SUCCESS",
      "id": "6968d9860a04c052e2e44f1e",
      "jsonStructures": null,
      "linkOpenStatus": "Opened",
      "linkSubmitStatus": "Submitted",
      "sourceSystem": "APPLICATION_SERVICE",
      "transactionDate": "2026-01-02T03:15:56",
      "transactionId": "TXNCB68E75397",
      "transactionStep": "Verification"
    },
    {
      "applicationSuccessType": "pending",
      "cardLimit": 800000,
      "cardType": "SIGNATURE",
      "correlationId": "CORR96543",
      "customerCibil": 701,
      "customerId": "CUST00001",
      "customerIncome": 1393216,
      "customerName": "Customer_1",
      "errorCodes": "ERR_INCOMPLETE",
      "failureStep": "Form Started",
      "id": "6968d9860a04c052e2e44f1f",
      "jsonStructures": null,
      "linkOpenStatus": "Opened",
      "linkSubmitStatus": "Not Submitted",
      "sourceSystem": "FRONTEND",
      "transactionDate": "2026-01-07T16:52:15",
      "transactionId": "TXN75C7149CD6",
      "transactionStep": "Link Opened"
    },
    {
      "applicationSuccessType": "success",
      "cardLimit": 800000,
      "cardType": "SIGNATURE",
      "correlationId": "CORR96543",
      "customerCibil": 701,
      "customerId": "CUST00001",
      "customerIncome": 1393216,
      "customerName": "Customer_1",
      "errorCodes": "NONE",
      "failureStep": "SUCCESS",
      "id": "6968d9860a04c052e2e44f1b",
      "jsonStructures": null,
      "linkOpenStatus": "Opened",
      "linkSubmitStatus": "Submitted",
      "sourceSystem": "FRONTEND",
      "transactionDate": "2026-01-16T20:31:38",
      "transactionId": "TXNDDA5C5978E",
      "transactionStep": "Link Opened"
    },
    {
      "applicationSuccessType": "pending",
      "cardLimit": 800000,
      "cardType": "SIGNATURE",
      "correlationId": "CORR96543",
      "customerCibil": 701,
      "customerId": "CUST00001",
      "customerIncome": 1393216,
      "customerName": "Customer_1",
      "errorCodes": "ERR_INCOMPLETE",
      "failureStep": "Form Started",
      "id": "6968d9860a04c052e2e44f20",
      "jsonStructures": null,
      "linkOpenStatus": "Opened",
      "linkSubmitStatus": "Not Submitted",
      "sourceSystem": "FRONTEND",
      "transactionDate": "2026-01-13T07:18:12",
      "transactionId": "TXND094C3D2E1",
      "transactionStep": "Form Started"
    }
  ],
  "empty": false,
  "first": true,
  "last": false,
  "number": 0,
  "numberOfElements": 5,
  "pageable": {
    "offset": 0,
    "pageNumber": 0,
    "pageSize": 5,
    "paged": true,
    "sort": {
      "empty": true,
      "sorted": false,
      "unsorted": true
    },
    "unpaged": false
  },
  "size": 5,
  "sort": {
    "empty": true,
    "sorted": false,
    "unsorted": true
  },
  "totalElements": 9,
  "totalPages": 2
}